{
  "latestVersion": "2.3.0",
  "versionCode": 40,
  "url": "https://cdn.shosetsu.app/v2.3.0/shosetsu-v2.3.0.apk",
  "releaseNotes": [
    "## New",
    "- Major overhaul with Material 3 elements thanks to Suhan G Paradkar",
    "- Unify selection mechanic between novel chapter and download items",
    "- Hide download pause button when unneeded",
    "- Add no categories message in Categories Controller",
    "- Add help button to share controller",
    "- Add 1em margin to all of reader content",
    "- Add table hack option in reader",
    "- Add Russian Translation",
    "- Add github to gitlab translation layer for repositories, no more microsoft!",
    "",
    "## Fixes",
    "- Only check major version in compatibility check for backups",
    "- Disable web view redirects in reader, no more accidental presses!",
    "- Fix WebView refreshing via rotation",
    "- F-Droid self update check & opening",
    "- Fix update repeating constantly",
    "- Fix bottom navigation getting stuck invisible during view changes",
    "- Sort chapters by their order when requesting downloads",
    "- Handle metadata exceptions better",
    "- Add explict disk cache for images",
    "",
    "## Misc",
    "- Update kotlin-lib to 1.1.1",
    "- Add uptodown to readme",
    "- Upgrade dependencies",
    "- Do not export internal activities",
    "- Replace straight quotes with directional quotes in strings",
    "- Removed unused resources & classes",
    "- Remove \"untranslatable\" from support dev on patreon",
    "- Silence proguard warnings"
  ]
}